wiki_db,min,q1,q2,q3,max,year,iqr,whisker_min,whisker_max
azwiki,0.13101257,0.13101257,0.13101257,0.13101257,0.13101257,2002,0.0,0.13101257,0.13101257
azwiki,0.13298787,0.13298787,0.13298787,0.13298787,0.13298787,2003,0.0,0.13298787,0.13298787
azwiki,0.02061402,0.14233688,0.18358296,0.23471354,0.41458935,2004,0.092376664,0.02061402,0.37327844
azwiki,0.03195457,0.1543916,0.242284,0.24238352,0.73618984,2005,0.08799192,0.03195457,0.37437132
azwiki,0.029402869,0.27917475,0.36791733,0.38004974,0.7729081,2006,0.10087499,0.12786235,0.5313621
azwiki,0.013801789,0.25712717,0.2950846,0.34197053,0.8163189,2007,0.08484337,0.12986219,0.4692355
azwiki,0.010127744,0.28310677,0.34050813,0.42883202,0.942,2008,0.14572525,0.06451903,0.64741975
azwiki,0.010127744,0.29911682,0.34478986,0.43374443,0.942,2009,0.13462761,0.09717554,0.6356857
azwiki,0.010127744,0.26862887,0.33588576,0.41432276,0.942,2010,0.1456939,0.050088152,0.63286346
azwiki,0.010127744,0.25953358,0.35674384,0.47862118,0.9544736,2011,0.2190876,0.010127744,0.8072524
azwiki,0.010127744,0.27565372,0.35989368,0.47846392,0.9582772,2012,0.2028102,0.010127744,0.782679
azwiki,0.010127744,0.22559968,0.3272842,0.45420405,0.95772386,2013,0.22860438,0.010127744,0.79711044
azwiki,0.010127744,0.23006484,0.32618693,0.46369794,0.97833717,2014,0.2336331,0.010127744,0.81414735
azwiki,0.0066301646,0.23994376,0.33576846,0.47026902,0.98651016,2015,0.23032527,0.0066301646,0.8157567
azwiki,0.007655855,0.25114274,0.34582907,0.47877482,0.984,2016,0.22763208,0.007655855,0.82022274
azwiki,0.007655855,0.2624278,0.3636163,0.48569742,0.984,2017,0.22326961,0.007655855,0.8206016
azwiki,0.007655855,0.27184623,0.3700258,0.48986924,0.984,2018,0.218023,0.007655855,0.81690353
azwiki,0.007655855,0.2777008,0.37326893,0.49019805,0.984,2019,0.21249723,0.007655855,0.8089437
azwiki,0.010127744,0.2661577,0.36660787,0.48938456,0.984,2020,0.22322688,0.010127744,0.82422465
azwiki,0.010127744,0.27201247,0.36939597,0.4913906,0.98321843,2021,0.21937811,0.010127744,0.8204576
azwiki,0.014322793,0.2738668,0.36706632,0.49148324,0.97572345,2022,0.21761644,0.014322793,0.8179077
