wiki_db,min,q1,q2,q3,max,year,iqr,whisker_min,whisker_max
cswiki,0.070698,0.15559386,0.1661166,0.21123537,0.3131576,2002,0.055641517,0.072131634,0.29469758
cswiki,0.013493853,0.15286534,0.18239795,0.21943904,0.6725057,2003,0.06657371,0.05300484,0.31929955
cswiki,0.03544545,0.20004106,0.26441756,0.32171872,0.7523846,2004,0.12167767,0.03544545,0.5042351
cswiki,0.012440717,0.21938908,0.28530583,0.33923292,0.7523846,2005,0.11984384,0.03962344,0.51899856
cswiki,0.014781775,0.22650841,0.27630788,0.34554705,0.8781471,2006,0.11903864,0.047950566,0.5241049
cswiki,0.01624875,0.23845127,0.2985867,0.37092987,0.9127517,2007,0.1324786,0.0397335,0.56964767
cswiki,0.015385359,0.24967751,0.31692666,0.3954317,0.9314352,2008,0.14575419,0.03104636,0.61406285
cswiki,0.020014618,0.2603865,0.33128494,0.41505605,0.9495768,2009,0.15466955,0.028382316,0.6470602
cswiki,0.021335654,0.2745806,0.34043762,0.4293177,0.95644206,2010,0.15473711,0.042475075,0.6614232
cswiki,0.014152472,0.2834933,0.3520524,0.44346672,0.9668873,2011,0.15997341,0.04353334,0.6834267
cswiki,0.021335654,0.2884661,0.3587373,0.45324868,0.9719878,2012,0.16478258,0.041292384,0.7004224
cswiki,0.021335654,0.27425554,0.34933236,0.44948593,0.9772962,2013,0.17523038,0.021335654,0.7123313
cswiki,0.021335654,0.2803288,0.35747194,0.4583954,0.97620654,2014,0.17806658,0.021335654,0.7254951
cswiki,0.013493853,0.2849185,0.36515647,0.46850908,0.9747779,2015,0.18359059,0.013493853,0.7438948
cswiki,0.007983071,0.29041028,0.37282032,0.4779467,0.97529584,2016,0.18753642,0.009105831,0.7592511
cswiki,0.007983071,0.29417804,0.3784711,0.48556015,0.9663771,2017,0.19138211,0.007983071,0.77263314
cswiki,0.007983071,0.29881507,0.38373598,0.49087337,0.97121346,2018,0.1920583,0.010727823,0.7789606
cswiki,0.010007309,0.30400893,0.38907918,0.49848557,0.96914786,2019,0.19447663,0.012294173,0.79020035
cswiki,0.022579534,0.30921552,0.39592427,0.50677276,0.9744995,2020,0.19755724,0.022579534,0.80310845
cswiki,0.035095617,0.31610292,0.40386343,0.51610345,0.9730678,2021,0.20000052,0.035095617,0.81610405
cswiki,0.026987705,0.32103196,0.41026437,0.52368945,0.9758834,2022,0.20265749,0.026987705,0.82767546
