wiki_db,min,q1,q2,q3,max,year,iqr,whisker_min,whisker_max
ltwiki,0.024667742,0.13128626,0.17110474,0.28075317,0.5129511,2003,0.1494669,0.024667742,0.5049534
ltwiki,0.046572536,0.257188,0.34287944,0.4194604,0.75660694,2004,0.1622724,0.046572536,0.66286886
ltwiki,0.030340526,0.2412801,0.29801232,0.3869691,0.775,2005,0.145689,0.030340526,0.6055024
ltwiki,0.0237,0.20897348,0.3007457,0.37958863,0.81329834,2006,0.17061515,0.0237,0.63551116
ltwiki,0.0158,0.2285829,0.31428272,0.3949254,0.8933166,2007,0.16634248,0.0158,0.644439
ltwiki,0.0158,0.25347194,0.32838374,0.40730017,0.91318506,2008,0.15382823,0.02272974,0.6380424
ltwiki,0.01975,0.26533172,0.34488878,0.42573747,0.9586753,2009,0.16040576,0.024723232,0.66634595
ltwiki,0.01975,0.23376304,0.34325263,0.42998803,0.95901144,2010,0.19622499,0.01975,0.7243253
ltwiki,0.01975,0.26877743,0.3531616,0.4356738,0.95951337,2011,0.16689637,0.01975,0.6860182
ltwiki,0.01975,0.27199522,0.35755637,0.44265062,0.9598526,2012,0.1706554,0.01975,0.69863355
ltwiki,0.01975,0.25133595,0.33459336,0.42541358,0.95608383,2013,0.17407763,0.01975,0.6865299
ltwiki,0.01975,0.2572977,0.33950552,0.42984346,0.95515466,2014,0.17254576,0.01975,0.68866193
ltwiki,0.01975,0.26142725,0.34392914,0.4332437,0.9521616,2015,0.17181644,0.01975,0.69096816
ltwiki,0.01975,0.26424426,0.34666863,0.43567762,0.9521616,2016,0.17143336,0.01975,0.69282746
ltwiki,0.01975,0.2661072,0.3493516,0.43875512,0.9534527,2017,0.17264792,0.01975,0.69772685
ltwiki,0.01975,0.26856592,0.35273063,0.44190726,0.9534527,2018,0.17334133,0.01975,0.7019191
ltwiki,0.01975,0.271869,0.35672835,0.44846427,0.9534527,2019,0.17659527,0.01975,0.713357
ltwiki,0.01975,0.2836894,0.36286187,0.4532402,0.9534527,2020,0.16955078,0.029363394,0.7075662
ltwiki,0.01975,0.31403214,0.397101,0.4699909,0.9455812,2021,0.15595877,0.08009413,0.70392895
ltwiki,0.01975,0.31821418,0.4018556,0.47675753,0.9433992,2022,0.15854335,0.080399305,0.7145724
