wiki_db,min,q1,q2,q3,max,year,iqr,whisker_min,whisker_max
slwiki,0.03033587,0.17990585,0.190468,0.24796358,0.64888656,2003,0.06805773,0.07781932,0.3500501
slwiki,0.0071502333,0.20181939,0.2410512,0.3197072,0.76255554,2004,0.117887825,0.024987772,0.49653882
slwiki,0.0071502333,0.21556565,0.26252034,0.33096322,0.79366666,2005,0.11539757,0.042469397,0.5040595
slwiki,0.0071502333,0.23734199,0.30218682,0.35213238,0.9427972,2006,0.114790395,0.065156505,0.52431786
slwiki,0.0071502333,0.22568442,0.29644915,0.35970718,0.9383627,2007,0.13402276,0.02465041,0.5607412
slwiki,0.0071502333,0.23338668,0.30753088,0.37927687,0.9546699,2008,0.14589019,0.014551535,0.598112
slwiki,0.0071502333,0.24018103,0.31545666,0.3946083,0.9323232,2009,0.15442726,0.008540288,0.626249
slwiki,0.010111957,0.25354117,0.33211583,0.39826986,0.94144595,2010,0.14472869,0.03644827,0.61536276
slwiki,0.010111957,0.25926292,0.3256601,0.39709163,0.9458708,2011,0.13782871,0.052519992,0.60383457
slwiki,0.010111957,0.26451972,0.33770314,0.40389824,0.94592655,2012,0.13937852,0.05545208,0.6129659
slwiki,0.010111957,0.24811307,0.3253677,0.39282456,0.9436972,2013,0.1447115,0.031045958,0.60989165
slwiki,0.010111957,0.2537194,0.33125937,0.402267,0.9436926,2014,0.14854762,0.03089811,0.6250883
slwiki,0.010111957,0.2602387,0.3373993,0.40903437,0.94769865,2015,0.14879566,0.03704536,0.6322277
slwiki,0.010111957,0.2649994,0.33814108,0.41115448,0.94312763,2016,0.14615509,0.04576689,0.63038695
slwiki,0.010111957,0.2669903,0.33874446,0.4145261,0.9431217,2017,0.1475358,0.045686737,0.6358297
slwiki,0.010111957,0.2687978,0.34140295,0.41964006,0.94317627,2018,0.15084225,0.04253459,0.6459033
slwiki,0.013566613,0.27039903,0.34472078,0.42380425,0.94317627,2019,0.15340522,0.040291354,0.65391195
slwiki,0.013566613,0.27301615,0.34815,0.4292369,0.94317365,2020,0.15622073,0.038685203,0.66356784
slwiki,0.013566613,0.27728686,0.35250667,0.4369738,0.94318825,2021,0.15968695,0.037756577,0.6765041
slwiki,0.013566613,0.278258,0.3567679,0.44417977,0.9416705,2022,0.16592178,0.029375494,0.6930623
