wiki_db,min,q1,q2,q3,max,year,iqr,whisker_min,whisker_max
thwiki,0.19457068,0.19457068,0.19457068,0.21448219,0.21448219,2003,0.019911513,0.19457068,0.21448219
thwiki,0.012863531,0.19787261,0.23250249,0.29258525,0.5785412,2004,0.094712645,0.05580373,0.43465412
thwiki,0.021561379,0.21628639,0.27373317,0.3491711,0.7563177,2005,0.13288471,0.021561379,0.54849803
thwiki,0.00930994,0.22598389,0.29407552,0.33781353,0.8739856,2006,0.11182964,0.058239534,0.5055579
thwiki,0.014313215,0.23324497,0.29477933,0.35876358,0.95235336,2007,0.1255186,0.04496719,0.54704136
thwiki,0.014313215,0.24150287,0.2984553,0.3782449,0.9600812,2008,0.13674204,0.036389932,0.5833578
thwiki,0.014313215,0.2529994,0.31566375,0.39616492,0.965381,2009,0.14316553,0.038251236,0.6109131
thwiki,0.0125535205,0.26412445,0.32868794,0.41188428,0.9740373,2010,0.14775982,0.04248485,0.6335239
thwiki,0.0125535205,0.27188966,0.3392611,0.42455646,0.97391427,2011,0.1526668,0.042889595,0.6535565
thwiki,0.0125535205,0.28116688,0.3515659,0.44022927,0.9698694,2012,0.15906239,0.042573452,0.6788227
thwiki,0.0125535205,0.2498078,0.3350773,0.4332242,0.96847016,2013,0.1834164,0.0125535205,0.70834863
thwiki,0.0125535205,0.25508547,0.34194347,0.44285333,0.9672973,2014,0.18776786,0.0125535205,0.72450495
thwiki,0.007939544,0.25818086,0.34596995,0.44901764,0.9652677,2015,0.19083679,0.007939544,0.73527265
thwiki,0.0125535205,0.26055896,0.34863767,0.45328504,0.96577287,2016,0.19272608,0.0125535205,0.74237394
thwiki,0.0125535205,0.26299822,0.3519394,0.45961523,0.9664797,2017,0.196617,0.0125535205,0.75454056
thwiki,0.0125535205,0.26617652,0.356231,0.46536916,0.965405,2018,0.19919264,0.0125535205,0.76415795
thwiki,0.006875846,0.26977187,0.3599699,0.47099677,0.9660309,2019,0.2012249,0.006875846,0.77283394
thwiki,0.006875846,0.27671736,0.365071,0.4766893,0.9636573,2020,0.19997194,0.006875846,0.77664703
thwiki,0.006875846,0.27960274,0.36355746,0.47740057,0.9601096,2021,0.19779783,0.006875846,0.77409714
thwiki,0.0105030285,0.2854192,0.37029147,0.4874247,0.9601957,2022,0.2020055,0.0105030285,0.7904328
