wiki_db,min,q1,q2,q3,max,year,iqr,whisker_min,whisker_max
ttwiki,0.024667742,0.024667742,0.024667742,0.14757253,0.14757253,2003,0.12290479,0.024667742,0.14757253
ttwiki,0.024349436,0.35193512,0.3520168,0.46015018,0.7729297,2004,0.108215064,0.18961263,0.62247264
ttwiki,0.024349436,0.3465416,0.34681153,0.44979516,0.7723756,2005,0.10325354,0.1916614,0.60467535
ttwiki,0.024349436,0.35076237,0.35203725,0.4635308,0.8158114,2006,0.11276844,0.18160981,0.6326834
ttwiki,0.13266493,0.3559252,0.3572865,0.47358033,0.82153356,2007,0.11765513,0.17944263,0.6500629
ttwiki,0.07890512,0.35703027,0.3587496,0.4739443,0.8256059,2008,0.116914034,0.18165933,0.64931524
ttwiki,0.018527143,0.3425288,0.36119196,0.4758543,0.8707229,2009,0.13332552,0.14254065,0.67584246
ttwiki,0.07338152,0.32880238,0.36443773,0.47331434,0.88781285,2010,0.14451197,0.11203456,0.6900822
ttwiki,0.07338152,0.3361967,0.37010327,0.42375165,0.956,2011,0.08755496,0.20486434,0.555084
ttwiki,0.07338152,0.33694598,0.37016565,0.4325389,0.97,2012,0.095592916,0.1935567,0.5759282
ttwiki,0.060233563,0.39550513,0.4185167,0.45924887,0.998,2013,0.06374374,0.29988956,0.5548644
ttwiki,0.060233563,0.38721722,0.41101763,0.43481445,0.99753,2014,0.04759723,0.3158214,0.50621027
ttwiki,0.060233563,0.38753393,0.41224068,0.4368152,0.998,2015,0.04928127,0.31361207,0.51073706
ttwiki,0.057104487,0.38740847,0.41226506,0.43736386,0.998,2016,0.049955398,0.3124754,0.5122969
ttwiki,0.03829667,0.35983872,0.40994,0.43699333,0.998,2017,0.07715461,0.24410689,0.5527252
ttwiki,0.009675484,0.31058797,0.4035851,0.43620324,0.998,2018,0.12561527,0.12216519,0.62462604
ttwiki,0.009675484,0.3042143,0.40086102,0.43609786,0.998,2019,0.13188356,0.106389076,0.63392305
ttwiki,0.009675484,0.3434169,0.39195183,0.4103506,0.998,2020,0.06693369,0.24301642,0.51075107
ttwiki,0.009675484,0.34700042,0.39357218,0.4346712,0.998,2021,0.08767077,0.21549435,0.56617725
ttwiki,0.009675484,0.37168354,0.40732595,0.43955997,0.998,2022,0.06787643,0.26986897,0.54137456
